…
```r
library(purrr)
by_state <- td %>% 
	group_by(stateabb) %>% 
	nest()
by_state
```

```
## # A tibble: 52 × 2
##    stateabb                  data
##      <fctr>                <list>
## 1        AL  <tibble [7,956 × 9]>
## 2        AK  <tibble [2,122 × 9]>
## 3        AZ  <tibble [8,768 × 9]>
## 4        AR <tibble [15,350 × 9]>
## 5        CA <tibble [43,806 × 9]>
## 6        CO  <tibble [7,372 × 9]>
## 7        CT  <tibble [9,076 × 9]>
## 8        DE    <tibble [938 × 9]>
## 9        DC     <tibble [60 × 9]>
## 10       FL  <tibble [4,322 × 9]>
## # ... with 42 more rows
```

----
## Fit multiple models


```r
by_state <- by_state %>% 
	mutate(model = map(data, ~lm(mean ~ time, data = .)))
by_state
```

```
## # A tibble: 52 × 3
##    stateabb                  data    model
##      <fctr>                <list>   <list>
## 1        AL  <tibble [7,956 × 9]> <S3: lm>
## 2        AK  <tibble [2,122 × 9]> <S3: lm>
## 3        AZ  <tibble [8,768 × 9]> <S3: lm>
## 4        AR <tibble [15,350 × 9]> <S3: lm>
## 5        CA <tibble [43,806 × 9]> <S3: lm>
## 6        CO  <tibble [7,372 × 9]> <S3: lm>
## 7        CT  <tibble [9,076 × 9]> <S3: lm>
## 8        DE    <tibble [938 × 9]> <S3: lm>
## 9        DC     <tibble [60 × 9]> <S3: lm>
## 10       FL  <tibble [4,322 × 9]> <S3: lm>
## # ... with 42 more rows
```

----

```r
by_state <- by_state %>% 
	mutate(r2 = map(model, summary) %>% 
				map_dbl("r.squared"))
by_state
```

```
## # A tibble: 52 × 4
##    stateabb                  data    model        r2
##      <fctr>                <list>   <list>     <dbl>
## 1        AL  <tibble [7,956 × 9]> <S3: lm> 0.5292111
## 2        AK  <tibble [2,122 × 9]> <S3: lm> 0.4486915
## 3        AZ  <tibble [8,768 × 9]> <S3: lm> 0.5183148
## 4        AR <tibble [15,350 × 9]> <S3: lm> 0.3704695
## 5        CA <tibble [43,806 × 9]> <S3: lm> 0.3802063
## 6        CO  <tibble [7,372 × 9]> <S3: lm> 0.5869236
## 7        CT  <tibble [9,076 × 9]> <S3: lm> 0.6090015
## 8        DE    <tibble [938 × 9]> <S3: lm> 0.6587978
## 9        DC     <tibble [60 × 9]> <S3: lm> 0.7073657
## 10       FL  <tibble [4,322 × 9]> <S3: lm> 0.6107051
## # ... with 42 more rows
```
…
